<?xml version="1.0" encoding="UTF-8" standalone="no"?>
<!-- Created with Inkscape (http://www.inkscape.org/) -->

<svg
   xmlns:dc="http://purl.org/dc/elements/1.1/"
   xmlns:cc="http://creativecommons.org/ns#"
   xmlns:rdf="http://www.w3.org/1999/02/22-rdf-syntax-ns#"
   xmlns:svg="http://www.w3.org/2000/svg"
   xmlns="http://www.w3.org/2000/svg"
   xmlns:sodipodi="http://sodipodi.sourceforge.net/DTD/sodipodi-0.dtd"
   xmlns:inkscape="http://www.inkscape.org/namespaces/inkscape"
   width="210mm"
   height="297mm"
   viewBox="0 0 744.09448819 1052.3622047"
   id="svg2"
   version="1.1"
   inkscape:version="0.91 r"
   sodipodi:docname="drawing.svg">
  <defs
     id="defs4" />
  <sodipodi:namedview
     id="base"
     pagecolor="#ffffff"
     bordercolor="#666666"
     borderopacity="1.0"
     inkscape:pageopacity="0.0"
     inkscape:pageshadow="2"
     inkscape:zoom="0.98994949"
     inkscape:cx="404.88192"
     inkscape:cy="781.00846"
     inkscape:document-units="px"
     inkscape:current-layer="layer1"
     showgrid="false"
     inkscape:window-width="1920"
     inkscape:window-height="1024"
     inkscape:window-x="0"
     inkscape:window-y="27"
     inkscape:window-maximized="1" />
  <metadata
     id="metadata7">
    <rdf:RDF>
      <cc:Work
         rdf:about="">
        <dc:format>image/svg+xml</dc:format>
        <dc:type
           rdf:resource="http://purl.org/dc/dcmitype/StillImage" />
        <dc:title></dc:title>
      </cc:Work>
    </rdf:RDF>
  </metadata>
  <g
     inkscape:label="Layer 1"
     inkscape:groupmode="layer"
     id="layer1">
    <ellipse
       style="fill:none;stroke:#000000;stroke-opacity:1"
       id="path4159"
       cx="348.57144"
       cy="123.0765"
       rx="18.571426"
       ry="19.285713" />
    <text
       xml:space="preserve"
       style="font-style:normal;font-weight:normal;font-size:30px;line-height:125%;font-family:sans-serif;letter-spacing:0px;word-spacing:0px;fill:#000000;fill-opacity:1;stroke:none;stroke-width:1px;stroke-linecap:butt;stroke-linejoin:miter;stroke-opacity:1"
       x="337.85712"
       y="133.07651"
       id="text4161"
       sodipodi:linespacing="125%"
       inkscape:transform-center-x="7.1428571"
       inkscape:transform-center-y="2.8571429"><tspan
         sodipodi:role="line"
         id="tspan4163"
         x="337.85712"
         y="133.07651">A</tspan></text>
    <ellipse
       style="fill:none;stroke:#000000;stroke-opacity:1"
       id="path4159-6"
       cx="595.98999"
       cy="289.69702"
       rx="18.571426"
       ry="19.285713" />
    <ellipse
       style="fill:none;stroke:#000000;stroke-opacity:1"
       id="path4159-60"
       cx="529.31995"
       cy="179.59041"
       rx="18.571426"
       ry="19.285713" />
    <ellipse
       style="fill:none;stroke:#000000;stroke-opacity:1"
       id="path4159-2"
       cx="473.76154"
       cy="255.35185"
       rx="18.571426"
       ry="19.285713" />
    <ellipse
       style="fill:none;stroke:#000000;stroke-opacity:1"
       id="path4159-0"
       cx="429.31485"
       cy="326.06253"
       rx="18.571426"
       ry="19.285713" />
    <text
       xml:space="preserve"
       style="font-style:normal;font-weight:normal;font-size:30px;line-height:125%;font-family:sans-serif;letter-spacing:0px;word-spacing:0px;fill:#000000;fill-opacity:1;stroke:none;stroke-width:1px;stroke-linecap:butt;stroke-linejoin:miter;stroke-opacity:1"
       x="464.1651"
       y="267.95844"
       id="text4208"
       sodipodi:linespacing="125%"><tspan
         sodipodi:role="line"
         id="tspan4210"
         x="464.1651"
         y="267.95844">T</tspan></text>
    <text
       xml:space="preserve"
       style="font-style:normal;font-weight:normal;font-size:30px;line-height:125%;font-family:sans-serif;letter-spacing:0px;word-spacing:0px;fill:#000000;fill-opacity:1;stroke:none;stroke-width:1px;stroke-linecap:butt;stroke-linejoin:miter;stroke-opacity:1"
       x="419.30994"
       y="338.49249"
       id="text4208-8"
       sodipodi:linespacing="125%"><tspan
         sodipodi:role="line"
         id="tspan4210-6"
         x="419.30994"
         y="338.49249">T</tspan></text>
    <text
       xml:space="preserve"
       style="font-style:normal;font-weight:normal;font-size:30px;line-height:125%;font-family:sans-serif;letter-spacing:0px;word-spacing:0px;fill:#000000;fill-opacity:1;stroke:none;stroke-width:1px;stroke-linecap:butt;stroke-linejoin:miter;stroke-opacity:1"
       x="518.81"
       y="191.03055"
       id="text4208-3"
       sodipodi:linespacing="125%"><tspan
         sodipodi:role="line"
         id="tspan4210-3"
         x="518.81"
         y="191.03055">T</tspan></text>
    <text
       xml:space="preserve"
       style="font-style:normal;font-weight:normal;font-size:30px;line-height:125%;font-family:sans-serif;letter-spacing:0px;word-spacing:0px;fill:#000000;fill-opacity:1;stroke:none;stroke-width:1px;stroke-linecap:butt;stroke-linejoin:miter;stroke-opacity:1"
       x="585.98517"
       y="301.64221"
       id="text4208-6"
       sodipodi:linespacing="125%"><tspan
         sodipodi:role="line"
         id="tspan4210-67"
         x="585.98517"
         y="301.64221">V</tspan></text>
    <ellipse
       style="fill:none;stroke:#000000;stroke-opacity:1"
       id="path4159-0-1"
       cx="155.14218"
       cy="142.13354"
       rx="18.571426"
       ry="19.285713" />
    <ellipse
       style="fill:none;stroke:#000000;stroke-opacity:1"
       id="path4159-0-6"
       cx="178.3757"
       cy="223.9559"
       rx="18.571426"
       ry="19.285713" />
    <ellipse
       style="fill:none;stroke:#000000;stroke-opacity:1"
       id="path4159-0-9"
       cx="201.60919"
       cy="306.78839"
       rx="18.571426"
       ry="19.285713" />
    <text
       xml:space="preserve"
       style="font-style:normal;font-weight:normal;font-size:30px;line-height:125%;font-family:sans-serif;letter-spacing:0px;word-spacing:0px;fill:#000000;fill-opacity:1;stroke:none;stroke-width:1px;stroke-linecap:butt;stroke-linejoin:miter;stroke-opacity:1"
       x="144.36035"
       y="153.19043"
       id="text4161-0"
       sodipodi:linespacing="125%"
       inkscape:transform-center-x="7.1428571"
       inkscape:transform-center-y="2.8571429"><tspan
         sodipodi:role="line"
         id="tspan4163-7"
         x="144.36035"
         y="153.19043">O</tspan></text>
    <text
       xml:space="preserve"
       style="font-style:normal;font-weight:normal;font-size:30px;line-height:125%;font-family:sans-serif;letter-spacing:0px;word-spacing:0px;fill:#000000;fill-opacity:1;stroke:none;stroke-width:1px;stroke-linecap:butt;stroke-linejoin:miter;stroke-opacity:1"
       x="165.9193"
       y="234.02859"
       id="text4161-0-7"
       sodipodi:linespacing="125%"
       inkscape:transform-center-x="7.1428571"
       inkscape:transform-center-y="2.8571429"><tspan
         sodipodi:role="line"
         id="tspan4163-7-8"
         x="165.9193"
         y="234.02859">O</tspan></text>
    <text
       xml:space="preserve"
       style="font-style:normal;font-weight:normal;font-size:30px;line-height:125%;font-family:sans-serif;letter-spacing:0px;word-spacing:0px;fill:#000000;fill-opacity:1;stroke:none;stroke-width:1px;stroke-linecap:butt;stroke-linejoin:miter;stroke-opacity:1"
       x="189.23402"
       y="316.75958"
       id="text4161-0-1"
       sodipodi:linespacing="125%"
       inkscape:transform-center-x="7.1428571"
       inkscape:transform-center-y="2.8571429"><tspan
         sodipodi:role="line"
         id="tspan4163-7-9"
         x="189.23402"
         y="316.75958">O</tspan></text>
  </g>
</svg>
