# Fdb version 3
["pdflatex"] 1436644210 "main.tex" "main.pdf" "main" 1436644210
  "/etc/texmf/web2c/texmf.cnf" 1436640436 1101 af7716885e081ab43982cab7b4672c1a ""
  "/usr/share/texlive/texmf-dist/fonts/map/fontname/texfonts.map" 1272929888 3287 e6b82fe08f5336d4d5ebc73fb1152e87 ""
  "/usr/share/texlive/texmf-dist/fonts/tfm/public/cm/cmr10.tfm" 1136768653 1296 45809c5a464d5f32c8f98ba97c1bb47f ""
  "/usr/share/texlive/texmf-dist/tex/context/base/supp-pdf.mkii" 1337017135 71627 94eb9990bed73c364d7f53f960cc8c5b ""
  "/usr/share/texlive/texmf-dist/tex/generic/ifxetex/ifxetex.sty" 1284331290 1458 43ab4710dc82f3edeabecd0d099626b2 ""
  "/usr/share/texlive/texmf-dist/tex/generic/oberdiek/gettitlestring.sty" 1303254447 8237 52810bdb4db2270e717422560a104aea ""
  "/usr/share/texlive/texmf-dist/tex/generic/oberdiek/hobsub-generic.sty" 1338332114 189108 8b3553a56c83ff61acecb36b75d817e2 ""
  "/usr/share/texlive/texmf-dist/tex/generic/oberdiek/hobsub-hyperref.sty" 1338332114 70752 45fa392800e07da61fa13446ad46b34d ""
  "/usr/share/texlive/texmf-dist/tex/generic/oberdiek/infwarerr.sty" 1335995445 8253 3bdedc8409aa5d290a2339be6f09af03 ""
  "/usr/share/texlive/texmf-dist/tex/generic/oberdiek/ltxcmds.sty" 1335995445 18425 775b341047ce304520cc7c11ca41392e ""
  "/usr/share/texlive/texmf-dist/tex/generic/xkeyval/xkeyval.tex" 1350473462 25158 17ce5e17c509c8ed5fd67545bd467826 ""
  "/usr/share/texlive/texmf-dist/tex/latex/amscls/amsthm.sty" 1361575838 13294 f63af559496acbb4ffecc2de353745eb ""
  "/usr/share/texlive/texmf-dist/tex/latex/amsfonts/amsfonts.sty" 1359763108 5949 3f3fd50a8cc94c3d4cbf4fc66cd3df1c ""
  "/usr/share/texlive/texmf-dist/tex/latex/amsfonts/amssymb.sty" 1359763108 13829 94730e64147574077f8ecfea9bb69af4 ""
  "/usr/share/texlive/texmf-dist/tex/latex/amsmath/amsbsy.sty" 1362954379 2412 2d98314dc5be38f455f8890deeb2d091 ""
  "/usr/share/texlive/texmf-dist/tex/latex/amsmath/amsgen.sty" 1362954379 4357 ad30ad08920902fc9b38caf35a3b0496 ""
  "/usr/share/texlive/texmf-dist/tex/latex/amsmath/amsmath.sty" 1362954379 79178 b2e326c351e876df0e5e23df2e02441b ""
  "/usr/share/texlive/texmf-dist/tex/latex/amsmath/amsopn.sty" 1362954379 4082 502152465aedb8f6a3c4b0b7c0fa8ae5 ""
  "/usr/share/texlive/texmf-dist/tex/latex/amsmath/amstext.sty" 1362954379 2637 846ebe982d3549c7ede7ce135456f54a ""
  "/usr/share/texlive/texmf-dist/tex/latex/base/bk11.clo" 1254151887 8897 bfb73e4b79bc60ba35ab412867f99099 ""
  "/usr/share/texlive/texmf-dist/tex/latex/base/ifthen.sty" 1254151887 5022 2ec7815b07dc68e65542e23a180bc839 ""
  "/usr/share/texlive/texmf-dist/tex/latex/base/inputenc.sty" 1254151887 4388 1cb2ca8d423695bd22ea8d126c276f33 ""
  "/usr/share/texlive/texmf-dist/tex/latex/base/latin1.def" 1254151887 6455 2a72ff1732e71317e8b646afb44d691b ""
  "/usr/share/texlive/texmf-dist/tex/latex/graphics/graphics.sty" 1254151804 14183 42a8fc761b806986eef292369afc2988 ""
  "/usr/share/texlive/texmf-dist/tex/latex/graphics/graphicx.sty" 1156702488 7882 3bd78469d444e8d494e27cfd7ca92719 ""
  "/usr/share/texlive/texmf-dist/tex/latex/graphics/keyval.sty" 1156702488 2266 7054435e4584a41cf53b0a7ca624d0cb ""
  "/usr/share/texlive/texmf-dist/tex/latex/graphics/trig.sty" 1156702488 3153 c50e6bd54d2dd3933fc52bcf369bec4a ""
  "/usr/share/texlive/texmf-dist/tex/latex/hyperref/hpdftex.def" 1352416072 51837 247bd8424b3835ef78c236dc1e0b4aef ""
  "/usr/share/texlive/texmf-dist/tex/latex/hyperref/hyperref.sty" 1352416072 231792 5fc9dc7dd667e773a766ecc63bba7f4b ""
  "/usr/share/texlive/texmf-dist/tex/latex/hyperref/nameref.sty" 1351899753 12847 25b617d63258c4f72870c883493a3cf8 ""
  "/usr/share/texlive/texmf-dist/tex/latex/hyperref/pd1enc.def" 1352416072 14005 155ac8fad2e5dd7c2cdd130fabd96633 ""
  "/usr/share/texlive/texmf-dist/tex/latex/latexconfig/color.cfg" 1254097189 802 7b8c8d72c24d795ed7720e4dfd29bff3 ""
  "/usr/share/texlive/texmf-dist/tex/latex/latexconfig/epstopdf-sys.cfg" 1279039959 678 4792914a8f45be57bb98413425e4c7af ""
  "/usr/share/texlive/texmf-dist/tex/latex/latexconfig/graphics.cfg" 1278958963 3563 d35e897cae3b8c6848f6677b73370b54 ""
  "/usr/share/texlive/texmf-dist/tex/latex/latexconfig/hyperref.cfg" 1254097189 235 6031e5765137be07eed51a510b2b8fb7 ""
  "/usr/share/texlive/texmf-dist/tex/latex/ms/everyshi.sty" 1177890616 3878 6aa7c08ff2621006e0603349e40a30a8 ""
  "/usr/share/texlive/texmf-dist/tex/latex/oberdiek/auxhook.sty" 1303254447 3834 707ef09f31d7d2ea47ba89974755dfe0 ""
  "/usr/share/texlive/texmf-dist/tex/latex/oberdiek/epstopdf-base.sty" 1303254447 12029 04d7fdf76e0464c23b5aa3a727952d7c ""
  "/usr/share/texlive/texmf-dist/tex/latex/oberdiek/grfext.sty" 1335995445 7075 bd0c34fbf1ae8fd1debd2a554e41b2d5 ""
  "/usr/share/texlive/texmf-dist/tex/latex/oberdiek/kvoptions.sty" 1335995445 22417 c74ff4af6a1aa2b65d1924020edbbe11 ""
  "/usr/share/texlive/texmf-dist/tex/latex/oberdiek/rerunfilecheck.sty" 1303254447 9581 1158efc648bc09d5064db5703c882159 ""
  "/usr/share/texlive/texmf-dist/tex/latex/pdftex-def/pdftex.def" 1306616590 55368 3c8a0d99822330f2dfabc0dfb09ce897 ""
  "/usr/share/texlive/texmf-dist/tex/latex/setspace/setspace.sty" 1324344192 22913 a27d7908fc6f0385466454a966a316eb ""
  "/usr/share/texlive/texmf-dist/tex/latex/todonotes/todonotes.sty" 1353885843 16560 5716e91e0bf33d1ef140551cf3a511bf ""
  "/usr/share/texlive/texmf-dist/tex/latex/tools/bm.sty" 1254151720 11823 9bcc8ce3d4bd33b432b9fc9543d4666e ""
  "/usr/share/texlive/texmf-dist/tex/latex/tools/calc.sty" 1254151720 10075 18f0ccff816231e9905cd2b3a482a622 ""
  "/usr/share/texlive/texmf-dist/tex/latex/url/url.sty" 1388531844 12796 8edb7d69a20b857904dd0ea757c14ec9 ""
  "/usr/share/texlive/texmf-dist/tex/latex/xkeyval/xkeyval.sty" 1350473462 4934 09bb8eb3760faa4ffb6107a36e5b3d76 ""
  "/usr/share/texlive/texmf-dist/web2c/texmf.cnf" 1392645748 31083 1dfd8bf685ce0009c40532fedf8a7c53 ""
  "/usr/share/texmf/tex/generic/pgf/basiclayer/pgfcore.code.tex" 1304191498 1006 b103be0bfc8c1682ff1fa9760697a329 ""
  "/usr/share/texmf/tex/generic/pgf/basiclayer/pgfcorearrows.code.tex" 1304191498 17851 c112f6fe3b1889f91d54568be38c934d ""
  "/usr/share/texmf/tex/generic/pgf/basiclayer/pgfcoreexternal.code.tex" 1304191498 17756 ee5bc7b20f746062c721d3fb3561530d ""
  "/usr/share/texmf/tex/generic/pgf/basiclayer/pgfcoregraphicstate.code.tex" 1304191498 5784 795b041ac60be7a46c83610345e459cb ""
  "/usr/share/texmf/tex/generic/pgf/basiclayer/pgfcoreimage.code.tex" 1304191498 7101 668c6a35cbea2ae302bbff4c62370bbd ""
  "/usr/share/texmf/tex/generic/pgf/basiclayer/pgfcorelayers.code.tex" 1304191498 2995 7ef0769105aad1182125ada52b0cbaa6 ""
  "/usr/share/texmf/tex/generic/pgf/basiclayer/pgfcoreobjects.code.tex" 1304191498 2631 7eefa6cdbefd8d4e2bad7262cf1094cd ""
  "/usr/share/texmf/tex/generic/pgf/basiclayer/pgfcorepathconstruct.code.tex" 1304191498 43868 70ba8731b9094652f05c653fd1011379 ""
  "/usr/share/texmf/tex/generic/pgf/basiclayer/pgfcorepathprocessing.code.tex" 1304191498 14189 bb3d2e0069dd43b25211385d7cac9d2c ""
  "/usr/share/texmf/tex/generic/pgf/basiclayer/pgfcorepathusage.code.tex" 1304191498 7725 917b5feaf8acae1fd979a8564eaf989c ""
  "/usr/share/texmf/tex/generic/pgf/basiclayer/pgfcorepatterns.code.tex" 1304191498 9518 b56e94efcd163a86f7e645fed6165055 ""
  "/usr/share/texmf/tex/generic/pgf/basiclayer/pgfcorepoints.code.tex" 1304191498 32491 d736244a6b667da89812f9b71e53016f ""
  "/usr/share/texmf/tex/generic/pgf/basiclayer/pgfcorequick.code.tex" 1304191498 3052 e5672c657232fd63b0a9853b0746297c ""
  "/usr/share/texmf/tex/generic/pgf/basiclayer/pgfcorescopes.code.tex" 1304191498 15994 10d20fb800ca222911f363d456007171 ""
  "/usr/share/texmf/tex/generic/pgf/basiclayer/pgfcoreshade.code.tex" 1304191498 21374 d2661129e65955d45fb741c95bb78d7a ""
  "/usr/share/texmf/tex/generic/pgf/basiclayer/pgfcoretransformations.code.tex" 1304191498 16741 1d0bcd33afcd45b27dceb8fd40f9b4e5 ""
  "/usr/share/texmf/tex/generic/pgf/basiclayer/pgfcoretransparency.code.tex" 1304191498 6577 2d95347b651f18f98fead9415f300f4a ""
  "/usr/share/texmf/tex/generic/pgf/frontendlayer/tikz/libraries/tikzlibrarypositioning.code.tex" 1304191498 4034 0a8cd33cf30d262ec971380666acb2d0 ""
  "/usr/share/texmf/tex/generic/pgf/frontendlayer/tikz/libraries/tikzlibrarytopaths.code.tex" 1304191498 11599 d694704a88e2f9007c996d3a6a4d629c ""
  "/usr/share/texmf/tex/generic/pgf/frontendlayer/tikz/tikz.code.tex" 1304191498 141845 db379d46f557a21d1a89b87a59bd9c88 ""
  "/usr/share/texmf/tex/generic/pgf/libraries/pgflibraryplothandlers.code.tex" 1304191498 30458 cb99d585a0cb84cc8870d0c59953a396 ""
  "/usr/share/texmf/tex/generic/pgf/math/pgfmath.code.tex" 1304191498 378 6ef5723aad20c1a3d29639e179a42dd6 ""
  "/usr/share/texmf/tex/generic/pgf/math/pgfmathcalc.code.tex" 1304191498 13312 f9d89166b99ea7e00e77858fe0194db1 ""
  "/usr/share/texmf/tex/generic/pgf/math/pgfmathfloat.code.tex" 1304191498 83664 208cb30de41494880aa77fffb3a1ccda ""
  "/usr/share/texmf/tex/generic/pgf/math/pgfmathfunctions.base.code.tex" 1304191498 8606 58f348f09f02ad9c20b10c1005bd9663 ""
  "/usr/share/texmf/tex/generic/pgf/math/pgfmathfunctions.basic.code.tex" 1304191498 19855 ed1993a13913c58cb372b1d66f20ea17 ""
  "/usr/share/texmf/tex/generic/pgf/math/pgfmathfunctions.code.tex" 1304191498 7724 738eefe8218f0e08dd2c317adbca7db5 ""
  "/usr/share/texmf/tex/generic/pgf/math/pgfmathfunctions.comparison.code.tex" 1304191498 3534 c7f28fbac13616513e513efe93b8569b ""
  "/usr/share/texmf/tex/generic/pgf/math/pgfmathfunctions.misc.code.tex" 1304191498 8574 010fc7ab92ca16c2da0f097ae7066b0d ""
  "/usr/share/texmf/tex/generic/pgf/math/pgfmathfunctions.random.code.tex" 1304191498 6964 d4b5e82dabddda1c728063bb9c8a22ba ""
  "/usr/share/texmf/tex/generic/pgf/math/pgfmathfunctions.round.code.tex" 1304191498 2688 139c6abc86761a6190c2f4bef5d752be ""
  "/usr/share/texmf/tex/generic/pgf/math/pgfmathfunctions.trigonometric.code.tex" 1304191498 86620 8a979a1502115110f3469c7579238489 ""
  "/usr/share/texmf/tex/generic/pgf/math/pgfmathparser.code.tex" 1304191498 27428 c613a3d1b703431360c8ef5579d00d85 ""
  "/usr/share/texmf/tex/generic/pgf/math/pgfmathutil.code.tex" 1304191498 7107 704b307dcd1ea898b650a4d17fe53fbe ""
  "/usr/share/texmf/tex/generic/pgf/modules/pgfmodulematrix.code.tex" 1304191498 20561 36e4cfc08771b8946e4669f1caa099d3 ""
  "/usr/share/texmf/tex/generic/pgf/modules/pgfmoduleplot.code.tex" 1304191498 10369 a8edc63c9a6be08baf6e4c402df10590 ""
  "/usr/share/texmf/tex/generic/pgf/modules/pgfmoduleshapes.code.tex" 1304191498 38030 dfa64639c84226b6d8ea0a34ae778755 ""
  "/usr/share/texmf/tex/generic/pgf/systemlayer/pgf.cfg" 1304191498 978 15af626ebd3d4d790aac19170dac04f2 ""
  "/usr/share/texmf/tex/generic/pgf/systemlayer/pgfsys-common-pdf.def" 1304191498 3630 7c64370dc4387995125f5b825096be23 ""
  "/usr/share/texmf/tex/generic/pgf/systemlayer/pgfsys-pdftex.def" 1304191498 12510 e20a03f54abbfc8914dba322a7a3dba7 ""
  "/usr/share/texmf/tex/generic/pgf/systemlayer/pgfsys.code.tex" 1304191498 32236 3923b93ea40b486a68f35dd7558f335c ""
  "/usr/share/texmf/tex/generic/pgf/systemlayer/pgfsysprotocol.code.tex" 1304191498 1983 b5994ebbcee17f1ba3d29bb1bd696fcf ""
  "/usr/share/texmf/tex/generic/pgf/systemlayer/pgfsyssoftpath.code.tex" 1304191498 7677 2eb6cc84c604878c08c9d943bbbc6e32 ""
  "/usr/share/texmf/tex/generic/pgf/utilities/pgffor.code.tex" 1304191498 21943 6710bea9dc92856d36a3dd219c3fdb8b ""
  "/usr/share/texmf/tex/generic/pgf/utilities/pgfkeys.code.tex" 1304191498 32925 ac47add413403603a8d3c47e035bd76c ""
  "/usr/share/texmf/tex/generic/pgf/utilities/pgfkeysfiltered.code.tex" 1304191498 33372 15f61ab79cad6ae1941b5caee584016a ""
  "/usr/share/texmf/tex/generic/pgf/utilities/pgfrcs.code.tex" 1304191498 2320 086533930e1dade214bdcd74a189c5a5 ""
  "/usr/share/texmf/tex/generic/pgf/utilities/pgfutil-common.tex" 1304191498 13382 a0507b5422f675ba8588f019a2f8b68e ""
  "/usr/share/texmf/tex/generic/pgf/utilities/pgfutil-latex.def" 1304191498 2771 d32e3f533abf44397dd690e41e934cdc ""
  "/usr/share/texmf/tex/latex/pgf/basiclayer/pgf.sty" 1304191498 1190 7fc0a2dca176dcabef03fed7aa3e5e7e ""
  "/usr/share/texmf/tex/latex/pgf/basiclayer/pgfcore.sty" 1304191498 410 5bf12ea7330e5f12c445332a4fe9a263 ""
  "/usr/share/texmf/tex/latex/pgf/compatibility/pgfcomp-version-0-65.sty" 1304191498 21115 facf03b7dbe5ea2f5f1dce1ac84b5d05 ""
  "/usr/share/texmf/tex/latex/pgf/compatibility/pgfcomp-version-1-18.sty" 1304191498 1091 d9163d29def82ee90370c8a63667742c ""
  "/usr/share/texmf/tex/latex/pgf/frontendlayer/tikz.sty" 1304191498 339 592cf35cba3d400082b8a9a5d0199d70 ""
  "/usr/share/texmf/tex/latex/pgf/systemlayer/pgfsys.sty" 1304191498 362 4d082b7c595b2ffec199f5351c4303c9 ""
  "/usr/share/texmf/tex/latex/pgf/utilities/pgffor.sty" 1304191498 323 c1a2c1d11990f32ace1f893aa7fee540 ""
  "/usr/share/texmf/tex/latex/pgf/utilities/pgfkeys.sty" 1304191498 274 4cad6e665cc93ac2ac979039a94fa1e1 ""
  "/usr/share/texmf/tex/latex/pgf/utilities/pgfrcs.sty" 1304191498 325 2bcd023400636339210573e2b3ee298b ""
  "/usr/share/texmf/tex/latex/xcolor/xcolor.sty" 1339578534 55224 a43bab84e0ac5e6efcaf9a98bde73a94 ""
  "/usr/share/texmf/web2c/texmf.cnf" 1392645748 31083 1dfd8bf685ce0009c40532fedf8a7c53 ""
  "/var/lib/texmf/web2c/pdftex/pdflatex.fmt" 1436640497 3822874 dba6b8fdfbca83ea8be212ba5b62ba6d ""
  "discothesis.cls" 1436631482 31282 abd969ad7f3d85e505ef2b0b7af55387 ""
  "figures/eth_logo_black" 0 -1 0 ""
  "main.aux" 1436644210 662 b2b94621371df8d9296b8bf5bec1b851 ""
  "main.out" 1436644210 0 d41d8cd98f00b204e9800998ecf8427e ""
  "main.tex" 1436644209 26747 d6e118fb6595e0c8524568470f2a4960 ""
  (generated)
  "main.log"
  "main.out"
  "main.pdf"
  "main.aux"
